…
    ## Adding missing grouping variables: `city_state`

``` r
homocide_glm
```

    ## # A tibble: 47 × 4
    ## # Groups:   city_state [47]
    ##    city_state      estimate conf.low conf.high
    ##    <chr>              <dbl>    <dbl>     <dbl>
    ##  1 Albuquerque, NM    0.894    0.774     1.03 
    ##  2 Atlanta, GA        0.879    0.807     0.957
    ##  3 Baltimore, MD      0.781    0.733     0.833
    ##  4 Baton Rouge, LA    0.788    0.691     0.899
    ##  5 Birmingham, AL     0.927    0.842     1.02 
    ##  6 Boston, MA         0.924    0.806     1.06 
    ##  7 Buffalo, NY        0.828    0.724     0.946
    ##  8 Charlotte, NC      0.868    0.803     0.938
    ##  9 Chicago, IL        0.800    0.764     0.836
    ## 10 Cincinnati, OH     0.769    0.691     0.855
    ## # ℹ 37 more rows
…
